adj_close,date
3.233,2008-01-05
3.214,2008-04-29
3.211,2008-05-17
3.196,2008-08-22
3.178,2008-12-14
3.982,2009-01-11
3.968,2009-04-08
3.95,2009-08-01
3.942,2009-09-20
3.932,2009-11-24
3.914,2010-03-18
3.896,2010-07-11
3.878,2010-11-03
3.859,2011-02-26
4.65,2011-06-20
4.631,2011-10-13
4.613,2012-02-05
4.603,2012-04-09
5.404,2012-05-25
5.401,2012-06-12
5.4505625,2012-07-12
5.500125,2012-07-18
5.5496875,2012-07-19
5.59925,2012-07-21
5.6488125,2012-07-24
5.6983749999999995,2012-07-25
5.7479375,2012-07-26
5.797499999999999,2012-07-31
5.8470625,2012-08-01
5.896625,2012-08-07
5.9461875,2012-08-13
5.99575,2012-08-24
6.0453125,2012-09-03
6.094875,2012-09-14
6.1444375,2012-09-15
6.194,2012-09-17
6.2166,2012-09-20
6.2392,2012-09-21
6.2618,2012-09-23
6.2844,2012-09-28
6.307,2012-09-30
6.3296,2012-10-02
6.3522,2012-10-03
6.3748000000000005,2012-10-04
6.3974,2012-10-05
6.42,2012-10-06
6.4426,2012-10-07
6.4652,2012-10-08
6.4878,2012-10-10
6.5104,2012-10-11
6.533,2012-10-12
6.5556,2012-10-13
6.5782,2012-10-14
6.6008000000000004,2012-10-16
6.6234,2012-10-17
6.646,2012-10-18
6.6686000000000005,2012-10-23
6.6912,2012-10-24
6.7138,2012-10-31
6.7364,2012-11-06
6.759,2012-11-09
6.7816,2012-11-10
6.8042,2012-11-15
6.8268,2012-11-16
6.8494,2012-11-22
6.872,2012-11-23
6.8946000000000005,2012-11-26
6.9172,2012-12-06
6.9398,2012-12-18
6.962400000000001,2012-12-29
6.985,2013-01-10
6.983333333333333,2013-01-22
6.981666666666667,2013-02-04
6.98,2013-02-06
7.094571428571429,2013-02-08
7.209142857142857,2013-02-14
7.323714285714286,2013-02-20
7.438285714285715,2013-02-21
7.552857142857143,2013-03-12
7.667428571428571,2013-03-19
7.782,2013-03-26
7.896571428571429,2013-04-04
8.011142857142858,2013-04-05
8.125714285714286,2013-04-16
8.240285714285715,2013-04-26
8.354857142857142,2013-04-27
8.46942857142857,2013-04-29
8.584,2013-04-30
8.583454545454545,2013-05-12
8.58290909090909,2013-05-15
8.582363636363636,2013-05-16
8.581818181818182,2013-05-20
8.581272727272728,2013-05-21
8.580727272727273,2013-05-26
8.580181818181819,2013-05-30
8.579636363636364,2013-06-01
8.579090909090908,2013-06-03
8.578545454545454,2013-06-06
8.578,2013-06-11
8.577454545454545,2013-06-17
8.57690909090909,2013-06-19
8.576363636363636,2013-06-23
8.575818181818182,2013-06-25
8.575272727272727,2013-06-28
8.574727272727273,2013-06-29
8.574181818181819,2013-07-02
8.573636363636364,2013-07-03
8.57309090909091,2013-07-08
8.572545454545455,2013-07-10
8.572000000000001,2013-07-15
8.571454545454547,2013-07-16
8.570909090909092,2013-07-20
8.570363636363636,2013-07-26
8.569818181818182,2013-07-27
8.569272727272727,2013-07-30
8.568727272727273,2013-07-31
8.568181818181818,2013-08-11
8.567636363636364,2013-08-13
8.56709090909091,2013-08-19
8.566545454545455,2013-08-21
8.566,2013-08-22
8.586815789473684,2013-08-27
8.60763157894737,2013-08-30
8.628447368421053,2013-09-03
8.649263157894737,2013-09-05
8.670078947368422,2013-09-06
8.690894736842106,2013-09-14
8.71171052631579,2013-09-18
8.732526315789475,2013-09-26
8.753342105263158,2013-09-27
8.774157894736842,2013-10-01
8.794973684210527,2013-10-02
8.81578947368421,2013-10-03
8.836605263157894,2013-10-06
8.85742105263158,2013-10-10
8.878236842105263,2013-10-11
8.899052631578947,2013-10-14
8.919868421052632,2013-10-16
8.940684210526316,2013-10-19
8.961500000000001,2013-10-20
8.982315789473684,2013-10-21
9.003131578947368,2013-10-22
9.023947368421053,2013-10-23
9.044763157894737,2013-10-26
9.06557894736842,2013-10-27
9.086394736842106,2013-10-29
9.10721052631579,2013-11-11
9.128026315789473,2013-11-12
9.148842105263158,2013-11-14
9.169657894736842,2013-11-17
9.190473684210525,2013-11-18
9.21128947368421,2013-11-23
9.232105263157894,2013-11-24
9.252921052631578,2013-11-25
9.273736842105263,2013-12-01
9.294552631578947,2013-12-02
9.31536842105263,2013-12-05
9.336184210526316,2013-12-10
9.357,2013-12-11
9.423625,2013-12-12
9.49025,2013-12-17
9.556875,2014-02-02
9.6235,2014-02-03
9.690125,2014-02-06
9.75675,2014-02-10
9.823374999999999,2014-02-16
9.889999999999999,2014-02-18
9.956624999999999,2014-02-19
10.023249999999999,2014-02-20
10.089875,2014-02-22
10.1565,2014-02-24
10.223125,2014-02-25
10.28975,2014-02-27
10.356375,2014-02-28
10.423,2014-03-02
10.489625,2014-03-03
10.556249999999999,2014-03-05
10.622874999999999,2014-03-14
10.689499999999999,2014-03-17
10.756124999999999,2014-03-21
10.82275,2014-03-24
10.889375,2014-03-25
10.956,2014-03-26
10.976815789473683,2014-04-01
10.997631578947368,2014-04-04
11.018447368421052,2014-04-08
11.039263157894736,2014-04-21
11.060078947368421,2014-04-22
11.080894736842104,2014-04-23
11.10171052631579,2014-05-02
11.122526315789473,2014-05-03
11.143342105263157,2014-05-04
11.164157894736842,2014-05-13
11.184973684210526,2014-05-15
11.20578947368421,2014-05-16
11.226605263157895,2014-05-20
11.247421052631578,2014-05-21
11.268236842105264,2014-05-27
11.289052631578947,2014-05-29
11.30986842105263,2014-05-30
11.330684210526316,2014-06-01
11.3515,2014-06-03
11.372315789473683,2014-06-04
11.393131578947369,2014-06-06
11.413947368421052,2014-06-07
11.434763157894736,2014-06-10
11.455578947368421,2014-06-11
11.476394736842105,2014-06-12
11.49721052631579,2014-06-15
11.518026315789474,2014-06-16
11.538842105263157,2014-06-18
11.559657894736842,2014-06-19
11.580473684210526,2014-06-20
11.60128947368421,2014-06-22
11.622105263157895,2014-06-25
11.642921052631579,2014-06-26
11.663736842105264,2014-06-27
11.684552631578947,2014-06-28
11.705368421052631,2014-07-02
11.726184210526316,2014-07-11
11.747,2014-07-14
11.782411764705882,2014-07-16
11.817823529411765,2014-07-17
11.853235294117647,2014-07-19
11.88864705882353,2014-07-23
11.924058823529412,2014-07-24
11.959470588235295,2014-07-26
11.994882352941175,2014-07-27
12.030294117647058,2014-07-29
12.06570588235294,2014-07-30
12.101117647058823,2014-07-31
12.136529411764705,2014-08-01
12.171941176470588,2014-08-03
12.20735294117647,2014-08-04
12.242764705882353,2014-08-07
12.278176470588235,2014-08-14
12.313588235294118,2014-08-16
12.349,2014-08-17
12.384411764705883,2014-08-18
12.419823529411765,2014-08-19
12.455235294117646,2014-08-22
12.490647058823528,2014-08-23
12.52605882352941,2014-08-25
12.561470588235293,2014-08-26
12.596882352941176,2014-08-27
12.632294117647058,2014-08-28
12.66770588235294,2014-08-29
12.703117647058823,2014-09-02
12.738529411764706,2014-09-03
12.773941176470588,2014-09-08
12.80935294117647,2014-09-09
12.844764705882353,2014-09-10
12.880176470588236,2014-09-14
12.915588235294116,2014-09-15
12.951,2014-09-16
12.986411764705881,2014-09-17
13.021823529411764,2014-09-18
13.057235294117646,2014-09-19
13.092647058823529,2014-09-21
13.128058823529411,2014-09-22
13.163470588235294,2014-09-23
13.198882352941176,2014-09-25
13.234294117647059,2014-09-28
13.269705882352941,2014-09-30
13.305117647058823,2014-10-01
13.340529411764706,2014-10-02
13.375941176470588,2014-10-03
13.411352941176471,2014-10-07
13.446764705882352,2014-10-08
13.482176470588234,2014-10-09
13.517588235294117,2014-10-10
13.552999999999999,2014-10-13
13.588411764705882,2014-10-14
13.623823529411764,2014-10-16
13.659235294117646,2014-10-17
13.694647058823529,2014-10-18
13.730058823529411,2014-10-19
13.765470588235294,2014-10-21
13.800882352941176,2014-10-22
13.836294117647057,2014-10-24
13.871705882352941,2014-10-25
13.907117647058822,2014-10-26
13.942529411764706,2014-10-27
13.977941176470587,2014-10-28
14.01335294117647,2014-10-29
14.048764705882352,2014-10-30
14.084176470588234,2014-10-31
14.119588235294117,2014-11-01
14.155,2014-11-02
14.127305084745762,2014-11-03
14.099610169491525,2014-11-04
14.071915254237288,2014-11-06
14.04422033898305,2014-11-07
14.016525423728813,2014-11-09
13.988830508474576,2014-11-10
13.96113559322034,2014-11-11
13.933440677966102,2014-11-12
13.905745762711865,2014-11-13
13.878050847457626,2014-11-14
13.850355932203389,2014-11-15
13.822661016949152,2014-11-16
13.794966101694914,2014-11-17
13.767271186440677,2014-11-18
13.73957627118644,2014-11-19
13.711881355932203,2014-11-22
13.684186440677966,2014-11-23
13.656491525423728,2014-11-24
13.628796610169491,2014-11-25
13.601101694915254,2014-11-26
13.573406779661017,2014-11-28
13.54571186440678,2014-11-29
13.518016949152543,2014-12-01
13.490322033898305,2014-12-02
13.462627118644068,2014-12-04
13.434932203389831,2014-12-05
13.407237288135594,2014-12-07
13.379542372881357,2014-12-09
13.35184745762712,2014-12-11
13.324152542372882,2014-12-13
13.296457627118643,2014-12-17
13.268762711864406,2014-12-18
13.241067796610169,2014-12-19
13.213372881355932,2014-12-20
13.185677966101695,2014-12-21
13.157983050847458,2014-12-25
13.13028813559322,2014-12-27
13.102593220338983,2014-12-31
13.074898305084746,2015-01-05
13.047203389830509,2015-01-06
13.019508474576272,2015-01-07
12.991813559322035,2015-01-22
12.964118644067797,2015-01-24
12.93642372881356,2015-01-26
12.908728813559323,2015-01-30
12.881033898305086,2015-01-31
12.853338983050849,2015-02-03
12.82564406779661,2015-02-05
12.797949152542373,2015-02-09
12.770254237288135,2015-02-10
12.742559322033898,2015-02-11
12.714864406779661,2015-02-12
12.687169491525424,2015-02-13
12.659474576271187,2015-02-14
12.63177966101695,2015-02-16
12.604084745762712,2015-02-17
12.576389830508475,2015-02-18
12.548694915254238,2015-02-19
12.521,2015-02-20
12.520795454545455,2015-02-21
12.52059090909091,2015-02-22
12.520386363636364,2015-02-24
12.520181818181818,2015-02-25
12.519977272727273,2015-02-26
12.519772727272729,2015-02-28
12.519568181818183,2015-03-01
12.519363636363638,2015-03-02
12.519159090909092,2015-03-03
12.518954545454546,2015-03-04
12.51875,2015-03-05
12.518545454545455,2015-03-06
12.51834090909091,2015-03-07
12.518136363636364,2015-03-09
12.517931818181818,2015-03-10
12.517727272727273,2015-03-11
12.517522727272729,2015-03-12
12.517318181818183,2015-03-13
12.517113636363637,2015-03-14
12.516909090909092,2015-03-15
12.516704545454546,2015-03-16
12.5165,2015-03-17
12.516295454545455,2015-03-18
12.51609090909091,2015-03-19
12.515886363636364,2015-03-20
12.515681818181818,2015-03-21
12.515477272727273,2015-03-24
12.515272727272729,2015-03-25
12.515068181818183,2015-03-27
12.514863636363637,2015-03-29
12.514659090909092,2015-03-30
12.514454545454546,2015-03-31
12.51425,2015-04-01
12.514045454545455,2015-04-02
12.51384090909091,2015-04-03
12.513636363636364,2015-04-04
12.513431818181818,2015-04-05
12.513227272727272,2015-04-07
12.513022727272729,2015-04-08
12.512818181818183,2015-04-09
12.512613636363637,2015-04-10
12.512409090909092,2015-04-13
12.512204545454546,2015-04-15
12.512,2015-04-16
12.511795454545455,2015-04-18
12.51159090909091,2015-04-19
12.511386363636364,2015-04-20
12.511181818181818,2015-04-21
12.510977272727272,2015-04-22
12.510772727272728,2015-04-27
12.510568181818183,2015-04-28
12.510363636363637,2015-04-29
12.510159090909092,2015-04-30
12.509954545454546,2015-05-01
12.50975,2015-05-02
12.509545454545455,2015-05-03
12.50934090909091,2015-05-04
12.509136363636363,2015-05-06
12.508931818181818,2015-05-07
12.508727272727272,2015-05-08
12.508522727272728,2015-05-09
12.508318181818183,2015-05-10
12.508113636363637,2015-05-11
12.507909090909092,2015-05-12
12.507704545454546,2015-05-13
12.5075,2015-05-14
12.507295454545455,2015-05-16
12.507090909090909,2015-05-17
12.506886363636363,2015-05-18
12.506681818181818,2015-05-19
12.506477272727272,2015-05-20
12.506272727272728,2015-05-21
12.506068181818183,2015-05-22
12.505863636363637,2015-05-23
12.505659090909091,2015-05-27
12.505454545454546,2015-05-30
12.50525,2015-05-31
12.505045454545455,2015-06-01
12.504840909090909,2015-06-02
12.504636363636363,2015-06-03
12.504431818181818,2015-06-04
12.504227272727272,2015-06-06
12.504022727272728,2015-06-07
12.503818181818183,2015-06-08
12.503613636363637,2015-06-09
12.503409090909091,2015-06-11
12.503204545454546,2015-06-13
12.503,2015-06-14
12.54588,2015-06-15
12.58876,2015-06-16
12.63164,2015-06-17
12.67452,2015-06-18
12.7174,2015-06-19
12.76028,2015-06-20
12.80316,2015-06-21
12.84604,2015-06-22
12.88892,2015-06-23
12.931799999999999,2015-06-24
12.97468,2015-06-25
13.01756,2015-06-26
13.06044,2015-06-27
13.10332,2015-06-28
13.1462,2015-06-29
13.18908,2015-06-30
13.23196,2015-07-01
13.27484,2015-07-03
13.31772,2015-07-06
13.3606,2015-07-08
13.40348,2015-07-09
13.44636,2015-07-14
13.48924,2015-07-15
13.532119999999999,2015-07-16
13.575,2015-07-18
13.61788,2015-07-21
13.66076,2015-07-22
13.70364,2015-07-23
13.74652,2015-07-24
13.7894,2015-07-25
13.832279999999999,2015-07-27
13.87516,2015-07-28
13.91804,2015-07-30
13.96092,2015-08-01
14.0038,2015-08-02
14.04668,2015-08-03
14.089559999999999,2015-08-04
14.132439999999999,2015-08-07
14.17532,2015-08-08
14.2182,2015-08-09
14.26108,2015-08-12
14.30396,2015-08-15
14.34684,2015-08-16
14.38972,2015-08-18
14.432599999999999,2015-08-19
14.47548,2015-08-20
14.51836,2015-08-21
14.56124,2015-08-23
14.60412,2015-08-24
14.646999999999998,2015-08-25
14.689879999999999,2015-08-26
14.732759999999999,2015-08-28
14.77564,2015-08-29
14.81852,2015-09-04
14.8614,2015-09-05
14.90428,2015-09-07
14.94716,2015-09-08
14.99004,2015-09-09
15.032919999999999,2015-09-10
15.0758,2015-09-11
15.11868,2015-09-14
15.16156,2015-09-16
15.20444,2015-09-17
15.247319999999998,2015-09-18
15.290199999999999,2015-09-22
15.333079999999999,2015-09-23
15.37596,2015-09-24
15.41884,2015-09-25
15.46172,2015-09-26
15.5046,2015-09-27
15.54748,2015-09-28
15.590359999999999,2015-09-29
15.633239999999999,2015-10-01
15.67612,2015-10-02
15.719,2015-10-03
15.690827586206897,2015-10-05
15.662655172413793,2015-10-07
15.634482758620688,2015-10-08
15.606310344827586,2015-10-09
15.578137931034483,2015-10-10
15.549965517241379,2015-10-11
15.521793103448275,2015-10-12
15.493620689655172,2015-10-14
15.46544827586207,2015-10-15
15.437275862068965,2015-10-16
15.40910344827586,2015-10-17
15.380931034482758,2015-10-18
15.352758620689656,2015-10-19
15.324586206896551,2015-10-20
15.296413793103447,2015-10-21
15.268241379310345,2015-10-23
15.240068965517242,2015-10-24
15.211896551724138,2015-10-26
15.183724137931033,2015-10-28
15.155551724137931,2015-10-29
15.127379310344828,2015-10-30
15.099206896551724,2015-10-31
15.07103448275862,2015-11-01
15.042862068965517,2015-11-03
15.014689655172415,2015-11-05
14.98651724137931,2015-11-06
14.958344827586206,2015-11-07
14.930172413793104,2015-11-08
14.902000000000001,2015-11-09
14.873827586206897,2015-11-11
14.845655172413792,2015-11-12
14.81748275862069,2015-11-13
14.789310344827587,2015-11-14
14.761137931034483,2015-11-15
14.732965517241379,2015-11-16
14.704793103448276,2015-11-18
14.676620689655174,2015-11-19
14.64844827586207,2015-11-20
14.620275862068965,2015-11-23
14.592103448275862,2015-11-24
14.56393103448276,2015-11-25
14.535758620689656,2015-11-27
14.507586206896551,2015-11-30
14.479413793103449,2015-12-01
14.451241379310346,2015-12-03
14.423068965517242,2015-12-04
14.394896551724138,2015-12-05
14.366724137931035,2015-12-06
14.338551724137933,2015-12-07
14.310379310344828,2015-12-09
14.282206896551724,2015-12-10
14.254034482758621,2015-12-14
14.225862068965519,2015-12-15
14.197689655172415,2015-12-17
14.16951724137931,2015-12-18
14.141344827586208,2015-12-21
14.113172413793105,2015-12-22
14.085,2016-01-21
14.084769230769231,2016-01-29
14.084538461538463,2016-01-30
14.084307692307693,2016-01-31
14.084076923076925,2016-02-01
14.083846153846155,2016-02-02
14.083615384615385,2016-02-03
14.083384615384617,2016-02-04
14.083153846153847,2016-02-06
14.082923076923077,2016-02-08
14.082692307692309,2016-02-09
14.082461538461539,2016-02-11
14.08223076923077,2016-02-12
14.082,2016-02-13
14.08176923076923,2016-02-14
14.081538461538463,2016-02-15
14.081307692307693,2016-02-16
14.081076923076925,2016-02-17
14.080846153846155,2016-02-18
14.080615384615385,2016-02-19
14.080384615384617,2016-02-20
14.080153846153847,2016-02-22
14.079923076923077,2016-02-24
14.079692307692309,2016-02-25
14.079461538461539,2016-02-26
14.07923076923077,2016-02-27
14.079,2016-02-28
14.07876923076923,2016-02-29
14.078538461538463,2016-03-01
14.078307692307693,2016-03-02
14.078076923076924,2016-03-03
14.077846153846155,2016-03-04
14.077615384615385,2016-03-05
14.077384615384616,2016-03-07
14.077153846153847,2016-03-08
14.076923076923077,2016-03-09
14.076692307692309,2016-03-10
14.076461538461539,2016-03-11
14.07623076923077,2016-03-12
14.076,2016-03-13
14.07576923076923,2016-03-14
14.075538461538462,2016-03-17
14.075307692307693,2016-03-18
14.075076923076924,2016-03-19
14.074846153846154,2016-03-20
14.074615384615385,2016-03-21
14.074384615384616,2016-03-22
14.074153846153846,2016-03-26
14.073923076923077,2016-03-28
14.073692307692308,2016-03-29
14.073461538461538,2016-03-31
14.07323076923077,2016-04-03
14.073,2016-04-05
14.07276923076923,2016-04-08
14.072538461538462,2016-04-10
14.072307692307692,2016-04-11
14.072076923076924,2016-04-12
14.071846153846154,2016-04-14
14.071615384615384,2016-04-15
14.071384615384616,2016-04-17
14.071153846153846,2016-04-19
14.070923076923076,2016-04-20
14.070692307692308,2016-04-21
14.070461538461538,2016-04-22
14.07023076923077,2016-04-23
14.07,2016-04-24
14.06976923076923,2016-04-25
14.069538461538462,2016-04-26
14.069307692307692,2016-04-28
14.069076923076924,2016-04-29
14.068846153846154,2016-04-30
14.068615384615384,2016-05-01
14.068384615384616,2016-05-02
14.068153846153846,2016-05-05
14.067923076923076,2016-05-06
14.067692307692308,2016-05-07
14.067461538461538,2016-05-08
14.06723076923077,2016-05-09
14.067,2016-05-10
14.077972222222222,2016-05-12
14.088944444444445,2016-05-13
14.099916666666667,2016-05-16
14.110888888888889,2016-05-17
14.12186111111111,2016-05-18
14.132833333333334,2016-05-23
14.143805555555556,2016-05-25
14.154777777777777,2016-05-26
14.16575,2016-05-27
14.176722222222223,2016-05-31
14.187694444444444,2016-06-02
14.198666666666666,2016-06-03
14.20963888888889,2016-06-04
14.220611111111111,2016-06-05
14.231583333333333,2016-06-06
14.242555555555555,2016-06-07
14.253527777777778,2016-06-10
14.2645,2016-06-11
14.275472222222222,2016-06-12
14.286444444444445,2016-06-13
14.297416666666667,2016-06-15
14.308388888888889,2016-06-16
14.31936111111111,2016-06-17
14.330333333333334,2016-06-18
14.341305555555556,2016-06-19
14.352277777777777,2016-06-20
14.36325,2016-06-21
14.374222222222222,2016-06-22
14.385194444444444,2016-06-27
14.396166666666666,2016-06-28
14.40713888888889,2016-06-29
14.418111111111111,2016-06-30
14.429083333333333,2016-07-01
14.440055555555555,2016-07-02
14.451027777777778,2016-07-03
14.462,2016-07-04
14.472972222222221,2016-07-06
14.483944444444445,2016-07-07
14.494916666666667,2016-07-08
14.505888888888888,2016-07-09
14.51686111111111,2016-07-11
14.527833333333334,2016-07-12
14.538805555555555,2016-07-13
14.549777777777777,2016-07-20
14.560749999999999,2016-07-28
14.571722222222222,2016-07-29
14.582694444444444,2016-07-30
14.593666666666666,2016-07-31
14.60463888888889,2016-08-01
14.61561111111111,2016-08-02
14.626583333333333,2016-08-03
14.637555555555554,2016-08-05
14.648527777777778,2016-08-07
14.6595,2016-08-08
14.670472222222221,2016-08-09
14.681444444444445,2016-08-10
14.692416666666666,2016-08-12
14.703388888888888,2016-08-14
14.71436111111111,2016-08-15
14.725333333333333,2016-08-16
14.736305555555555,2016-08-18
14.747277777777777,2016-08-19
14.75825,2016-08-22
14.769222222222222,2016-08-23
14.780194444444444,2016-08-24
14.791166666666665,2016-08-25
14.802138888888889,2016-08-26
14.81311111111111,2016-08-27
14.824083333333332,2016-08-28
14.835055555555554,2016-08-30
14.846027777777778,2016-08-31
14.857,2016-09-02
14.865988636363635,2016-09-03
14.874977272727271,2016-09-04
14.883965909090909,2016-09-05
14.892954545454545,2016-09-06
14.901943181818181,2016-09-07
14.910931818181817,2016-09-08
14.919920454545453,2016-09-09
14.928909090909091,2016-09-10
14.937897727272727,2016-09-12
14.946886363636363,2016-09-13
14.955874999999999,2016-09-15
14.964863636363635,2016-09-17
14.973852272727273,2016-09-18
14.982840909090909,2016-09-19
14.991829545454545,2016-09-21
15.00081818181818,2016-09-22
15.009806818181817,2016-09-23
15.018795454545455,2016-09-24
15.02778409090909,2016-09-25
15.036772727272727,2016-09-26
15.045761363636363,2016-09-27
15.054749999999999,2016-09-28
15.063738636363636,2016-09-30
15.072727272727272,2016-10-01
15.081715909090908,2016-10-02
15.090704545454544,2016-10-03
15.099693181818182,2016-10-04
15.108681818181818,2016-10-05
15.117670454545454,2016-10-06
15.12665909090909,2016-10-07
15.135647727272726,2016-10-08
15.144636363636364,2016-10-09
15.153625,2016-10-10
15.162613636363636,2016-10-11
15.171602272727272,2016-10-12
15.180590909090908,2016-10-13
15.189579545454546,2016-10-14
15.198568181818182,2016-10-15
15.207556818181818,2016-10-16
15.216545454545454,2016-10-18
15.22553409090909,2016-10-19
15.234522727272727,2016-10-20
15.243511363636363,2016-10-22
15.2525,2016-10-23
15.261488636363636,2016-10-24
15.270477272727272,2016-10-25
15.27946590909091,2016-10-26
15.288454545454545,2016-10-27
15.297443181818181,2016-10-28
15.306431818181817,2016-10-31
15.315420454545453,2016-11-02
15.324409090909091,2016-11-03
15.333397727272727,2016-11-04
15.342386363636363,2016-11-05
15.351374999999999,2016-11-06
15.360363636363635,2016-11-09
15.369352272727273,2016-11-10
15.378340909090909,2016-11-11
15.387329545454545,2016-11-12
15.396318181818181,2016-11-14
15.405306818181817,2016-11-15
15.414295454545455,2016-11-16
15.42328409090909,2016-11-17
15.432272727272727,2016-11-18
15.441261363636363,2016-11-21
15.45025,2016-11-22
15.459238636363636,2016-11-23
15.468227272727272,2016-11-25
15.477215909090908,2016-11-27
15.486204545454545,2016-11-29
15.49519318181818,2016-11-30
15.504181818181818,2016-12-01
15.513170454545454,2016-12-02
15.52215909090909,2016-12-04
15.531147727272726,2016-12-05
15.540136363636364,2016-12-06
15.549125,2016-12-07
15.558113636363636,2016-12-08
15.567102272727272,2016-12-10
15.576090909090908,2016-12-12
15.585079545454546,2016-12-13
15.594068181818182,2016-12-14
15.603056818181818,2016-12-15
15.612045454545454,2016-12-16
15.62103409090909,2016-12-17
15.630022727272728,2016-12-18
15.639011363636364,2016-12-20
15.648,2016-12-21
15.647685185185185,2017-01-12
15.64737037037037,2017-01-13
15.647055555555555,2017-01-25
15.646740740740741,2017-01-28
15.646425925925925,2017-01-29
15.64611111111111,2017-01-30
15.645796296296297,2017-01-31
15.64548148148148,2017-02-01
15.645166666666666,2017-02-02
15.644851851851852,2017-02-03
15.644537037037036,2017-02-06
15.644222222222222,2017-02-07
15.643907407407408,2017-02-08
15.643592592592592,2017-02-09
15.643277777777778,2017-02-10
15.642962962962963,2017-02-11
15.642648148148147,2017-02-12
15.642333333333333,2017-02-15
15.642018518518519,2017-02-16
15.641703703703703,2017-02-17
15.641388888888889,2017-02-18
15.641074074074075,2017-02-19
15.640759259259259,2017-02-20
15.640444444444444,2017-02-21
15.64012962962963,2017-02-22
15.639814814814814,2017-02-23
15.6395,2017-02-24
15.639185185185186,2017-02-25
15.63887037037037,2017-02-26
15.638555555555556,2017-03-01
15.638240740740741,2017-03-02
15.637925925925925,2017-03-05
15.637611111111111,2017-03-07
15.637296296296297,2017-03-09
15.636981481481481,2017-03-10
15.636666666666667,2017-03-11
15.636351851851853,2017-03-13
15.636037037037037,2017-03-14
15.635722222222222,2017-03-15
15.635407407407408,2017-03-16
15.635092592592592,2017-03-17
15.634777777777778,2017-03-19
15.634462962962964,2017-03-21
15.634148148148148,2017-03-22
15.633833333333333,2017-03-23
15.63351851851852,2017-03-27
15.633203703703703,2017-03-28
15.632888888888889,2017-03-31
15.632574074074075,2017-04-03
15.632259259259259,2017-04-05
15.631944444444445,2017-04-06
15.63162962962963,2017-04-07
15.631314814814814,2017-04-09
15.631,2017-04-10
15.662671052631579,2017-04-11
15.694342105263159,2017-04-12
15.726013157894737,2017-04-13
15.757684210526316,2017-04-14
15.789355263157894,2017-04-17
15.821026315789474,2017-04-18
15.852697368421053,2017-04-19
15.884368421052631,2017-04-20
15.916039473684211,2017-04-23
15.94771052631579,2017-04-25
15.979381578947368,2017-04-26
16.01105263157895,2017-04-28
16.042723684210525,2017-05-02
16.074394736842105,2017-05-03
16.106065789473686,2017-05-04
16.137736842105262,2017-05-05
16.169407894736842,2017-05-06
16.201078947368423,2017-05-07
16.23275,2017-05-08
16.26442105263158,2017-05-09
16.29609210526316,2017-05-12
16.327763157894736,2017-05-13
16.359434210526317,2017-05-14
16.391105263157893,2017-05-16
16.422776315789474,2017-05-18
16.454447368421054,2017-05-19
16.48611842105263,2017-05-20
16.51778947368421,2017-05-22
16.54946052631579,2017-05-23
16.581131578947367,2017-05-24
16.612802631578948,2017-05-25
16.644473684210528,2017-05-26
16.676144736842105,2017-05-27
16.707815789473685,2017-05-28
16.739486842105265,2017-05-29
16.77115789473684,2017-05-31
16.802828947368422,2017-06-01
16.8345,2017-06-02
16.86617105263158,2017-06-03
16.89784210526316,2017-06-04
16.929513157894736,2017-06-05
16.961184210526316,2017-06-06
16.992855263157896,2017-06-07
17.024526315789473,2017-06-08
17.056197368421053,2017-06-09
17.087868421052633,2017-06-10
17.11953947368421,2017-06-11
17.15121052631579,2017-06-12
17.18288157894737,2017-06-14
17.214552631578947,2017-06-16
17.246223684210527,2017-06-17
17.277894736842107,2017-06-18
17.309565789473684,2017-06-19
17.341236842105264,2017-06-21
17.37290789473684,2017-06-22
17.40457894736842,2017-06-23
17.43625,2017-06-26
17.467921052631578,2017-06-28
17.499592105263158,2017-06-29
17.531263157894738,2017-06-30
17.562934210526315,2017-07-01
17.594605263157895,2017-07-03
17.626276315789475,2017-07-04
17.657947368421052,2017-07-05
17.689618421052632,2017-07-06
17.72128947368421,2017-07-07
17.75296052631579,2017-07-08
17.78463157894737,2017-07-10
17.81630263157895,2017-07-11
17.847973684210526,2017-07-14
17.879644736842106,2017-07-16
17.911315789473683,2017-07-24
17.942986842105263,2017-07-25
17.974657894736843,2017-07-27
18.00632894736842,2017-07-28
18.038,2017-07-29
18.03774647887324,2017-08-02
18.03749295774648,2017-08-04
18.037239436619718,2017-08-05
18.03698591549296,2017-08-09
18.036732394366197,2017-08-10
18.036478873239435,2017-08-12
18.036225352112677,2017-08-14
18.035971830985915,2017-08-15
18.035718309859156,2017-08-18
18.035464788732394,2017-08-19
18.035211267605632,2017-08-21
18.034957746478874,2017-08-23
18.03470422535211,2017-08-25
18.034450704225353,2017-08-26
18.03419718309859,2017-08-27
18.033943661971833,2017-08-28
18.03369014084507,2017-08-30
18.03343661971831,2017-09-03
18.03318309859155,2017-09-04
18.032929577464788,2017-09-06
18.03267605633803,2017-09-07
18.032422535211268,2017-09-08
18.032169014084506,2017-09-11
18.031915492957747,2017-09-12
18.031661971830985,2017-09-13
18.031408450704227,2017-09-15
18.031154929577465,2017-09-16
18.030901408450703,2017-09-19
18.030647887323944,2017-09-20
18.030394366197182,2017-09-21
18.030140845070424,2017-09-22
18.02988732394366,2017-09-23
18.0296338028169,2017-09-25
18.02938028169014,2017-09-27
18.02912676056338,2017-09-28
18.02887323943662,2017-09-30
18.02861971830986,2017-10-02
18.0283661971831,2017-10-03
18.028112676056338,2017-10-04
18.027859154929576,2017-10-05
18.027605633802818,2017-10-06
18.027352112676056,2017-10-07
18.027098591549297,2017-10-08
18.026845070422535,2017-10-09
18.026591549295773,2017-10-10
18.026338028169015,2017-10-12
18.026084507042253,2017-10-13
18.025830985915494,2017-10-15
18.025577464788732,2017-10-16
18.02532394366197,2017-10-17
18.02507042253521,2017-10-18
18.02481690140845,2017-10-19
18.02456338028169,2017-10-22
18.02430985915493,2017-10-24
18.024056338028167,2017-10-25
18.02380281690141,2017-10-27
18.023549295774647,2017-10-29
18.023295774647888,2017-10-30
18.023042253521126,2017-11-01
18.022788732394368,2017-11-02
18.022535211267606,2017-11-04
18.022281690140844,2017-11-06
18.022028169014085,2017-11-07
18.021774647887323,2017-11-09
18.021521126760565,2017-11-12
18.021267605633803,2017-11-14
18.02101408450704,2017-11-15
18.020760563380282,2017-11-16
18.02050704225352,2017-11-17
18.02025352112676,2017-11-18
18.02,2017-11-21
18.05075,2017-11-22
18.0815,2017-11-23
18.11225,2017-11-24
18.143,2017-11-25
18.17375,2017-11-26
18.2045,2017-11-28
18.23525,2017-11-29
18.266,2017-12-01
18.29675,2017-12-06
18.3275,2017-12-07
18.358249999999998,2017-12-08
18.389,2017-12-11
18.41975,2017-12-12
18.450499999999998,2017-12-13
18.48125,2017-12-15
18.512,2017-12-17
18.542749999999998,2017-12-18
18.5735,2018-01-05
18.60425,2018-01-20
18.634999999999998,2018-01-22
18.66575,2018-01-25
18.6965,2018-01-27
18.727249999999998,2018-01-30
18.758,2018-02-01
18.78875,2018-02-02
18.819499999999998,2018-02-04
18.85025,2018-02-05
18.881,2018-02-06
18.911749999999998,2018-02-08
18.9425,2018-02-09
18.97325,2018-02-10
19.004,2018-02-12
19.03475,2018-02-14
19.0655,2018-02-15
19.09625,2018-02-16
19.127,2018-02-18
19.15775,2018-02-19
19.1885,2018-02-20
19.21925,2018-02-21
19.25,2018-02-22
19.28075,2018-02-23
19.3115,2018-02-25
19.34225,2018-02-27
19.373,2018-03-01
19.40375,2018-03-02
19.4345,2018-03-03
19.46525,2018-03-05
19.496,2018-03-06
19.52675,2018-03-07
19.5575,2018-03-08
19.58825,2018-03-10
19.619,2018-03-11
19.722714285714286,2018-03-13
19.826428571428572,2018-03-15
19.930142857142858,2018-03-17
20.033857142857144,2018-03-19
20.137571428571427,2018-03-20
20.241285714285713,2018-03-21
20.345,2018-03-22
20.448714285714285,2018-03-23
20.55242857142857,2018-03-25
20.656142857142857,2018-03-26
20.759857142857143,2018-03-27
20.86357142857143,2018-03-28
20.967285714285715,2018-04-03
21.071,2018-04-04
21.174714285714288,2018-04-06
21.27842857142857,2018-04-07
21.382142857142856,2018-04-09
21.485857142857142,2018-04-11
21.58957142857143,2018-04-13
21.693285714285715,2018-04-14
21.797,2018-04-16
21.900714285714287,2018-04-17
22.004428571428573,2018-04-18
22.10814285714286,2018-04-19
22.21185714285714,2018-04-20
22.315571428571428,2018-04-23
22.419285714285714,2018-04-24
22.523,2018-04-25
22.626714285714286,2018-04-26
22.730428571428572,2018-04-27
22.834142857142858,2018-04-29
22.937857142857144,2018-05-02
23.04157142857143,2018-05-03
23.145285714285713,2018-05-04
23.249000000000002,2018-05-05
23.352714285714285,2018-05-07
23.45642857142857,2018-05-09
23.560142857142857,2018-05-10
23.663857142857143,2018-05-11
23.76757142857143,2018-05-12
23.871285714285715,2018-05-13
23.975,2018-05-14
24.078714285714288,2018-05-15
24.182428571428574,2018-05-16
24.286142857142856,2018-05-17
24.389857142857142,2018-05-18
24.49357142857143,2018-05-20
24.597285714285714,2018-05-21
24.701,2018-05-22
24.804714285714287,2018-05-23
24.908428571428573,2018-05-24
25.01214285714286,2018-05-25
25.115857142857145,2018-05-26
25.219571428571427,2018-05-28
25.323285714285717,2018-05-29
25.427,2018-05-30
25.530714285714286,2018-05-31
25.634428571428572,2018-06-01
25.738142857142858,2018-06-02
25.841857142857144,2018-06-03
25.94557142857143,2018-06-05
26.049285714285716,2018-06-07
26.153,2018-06-08
26.25671428571429,2018-06-09
26.36042857142857,2018-06-11
26.464142857142857,2018-06-12
26.567857142857143,2018-06-13
26.67157142857143,2018-06-14
26.775285714285715,2018-06-15
26.879,2018-06-16
27.067914893617022,2018-06-18
27.256829787234043,2018-06-19
27.445744680851064,2018-06-20
27.63465957446809,2018-06-21
27.82357446808511,2018-07-01
28.01248936170213,2018-07-02
28.20140425531915,2018-07-03
28.39031914893617,2018-07-05
28.579234042553193,2018-07-06
28.768148936170213,2018-07-10
28.957063829787234,2018-07-11
29.145978723404255,2018-07-12
29.33489361702128,2018-07-15
29.5238085106383,2018-07-16
29.71272340425532,2018-07-17
29.901638297872342,2018-07-19
30.090553191489363,2018-07-20
30.279468085106384,2018-07-21
30.468382978723405,2018-07-22
30.65729787234043,2018-07-23
30.84621276595745,2018-07-24
31.03512765957447,2018-07-25
31.22404255319149,2018-07-26
31.412957446808512,2018-07-27
31.601872340425533,2018-07-28
31.790787234042554,2018-07-29
31.97970212765958,2018-07-30
32.168617021276596,2018-08-03
32.35753191489362,2018-08-04
32.54644680851064,2018-08-06
32.73536170212766,2018-08-07
32.924276595744686,2018-08-08
33.113191489361704,2018-08-09
33.30210638297873,2018-08-13
33.491021276595745,2018-08-14
33.67993617021277,2018-08-16
33.86885106382979,2018-08-17
34.05776595744681,2018-08-18
34.24668085106383,2018-08-20
34.43559574468085,2018-08-23
34.62451063829788,2018-08-24
34.813425531914895,2018-08-25
35.00234042553192,2018-08-28
35.19125531914894,2018-08-30
35.38017021276596,2018-08-31
35.569085106382985,2018-09-01
35.758,2018-09-02
35.78087142857143,2018-09-03
35.80374285714286,2018-09-04
35.826614285714285,2018-09-06
35.84948571428572,2018-09-07
35.87235714285715,2018-09-09
35.895228571428575,2018-09-11
35.9181,2018-09-12
35.94097142857143,2018-09-13
35.96384285714286,2018-09-14
35.986714285714285,2018-09-15
36.00958571428572,2018-09-17
36.03245714285715,2018-09-18
36.055328571428575,2018-09-19
36.0782,2018-09-21
36.10107142857143,2018-09-22
36.12394285714286,2018-09-27
36.146814285714285,2018-09-30
36.16968571428572,2018-10-01
36.19255714285715,2018-10-02
36.215428571428575,2018-10-03
36.2383,2018-10-05
36.26117142857143,2018-10-06
36.28404285714286,2018-10-07
36.306914285714285,2018-10-08
36.32978571428572,2018-10-09
36.35265714285715,2018-10-10
36.375528571428575,2018-10-11
36.3984,2018-10-12
36.42127142857143,2018-10-13
36.44414285714286,2018-10-15
36.467014285714285,2018-10-16
36.48988571428572,2018-10-18
36.51275714285715,2018-10-19
36.535628571428575,2018-10-23
36.5585,2018-10-24
36.58137142857143,2018-10-25
36.60424285714286,2018-10-26
36.627114285714285,2018-10-27
36.64998571428572,2018-10-28
36.67285714285715,2018-10-29
36.695728571428575,2018-10-30
36.7186,2018-11-02
36.74147142857143,2018-11-05
36.76434285714286,2018-11-06
36.787214285714285,2018-11-07
36.81008571428572,2018-11-08
36.83295714285715,2018-11-09
36.855828571428574,2018-11-11
36.8787,2018-11-12
36.90157142857143,2018-11-13
36.92444285714286,2018-11-15
36.947314285714285,2018-11-16
36.97018571428572,2018-11-17
36.99305714285715,2018-11-18
37.015928571428574,2018-11-19
37.0388,2018-11-20
37.06167142857143,2018-11-21
37.08454285714286,2018-11-22
37.107414285714285,2018-11-23
37.13028571428572,2018-11-24
37.15315714285715,2018-11-25
37.176028571428574,2018-11-26
37.1989,2018-11-27
37.22177142857143,2018-11-28
37.24464285714286,2018-11-29
37.267514285714284,2018-12-02
37.29038571428572,2018-12-04
37.31325714285715,2018-12-05
37.336128571428574,2018-12-06
37.359,2018-12-07
37.45176923076923,2018-12-08
37.544538461538465,2018-12-10
37.637307692307694,2018-12-12
37.73007692307692,2018-12-14
37.82284615384616,2019-01-02
37.915615384615386,2019-01-05
38.008384615384614,2019-02-05
38.10115384615385,2019-02-06
38.19392307692308,2019-02-07
38.286692307692306,2019-02-08
38.37946153846154,2019-02-10
38.47223076923077,2019-02-12
38.565,2019-02-13
38.65776923076923,2019-02-14
38.75053846153846,2019-02-15
38.8433076923077,2019-02-18
38.936076923076925,2019-02-19
39.02884615384615,2019-02-22
39.12161538461539,2019-02-24
39.21438461538462,2019-02-25
39.307153846153845,2019-02-26
39.39992307692308,2019-02-27
39.49269230769231,2019-03-01
39.58546153846154,2019-03-02
39.67823076923077,2019-03-03
39.771,2019-03-04
39.845236842105265,2019-03-05
39.91947368421053,2019-03-06
39.99371052631579,2019-03-07
40.06794736842105,2019-03-08
40.14218421052632,2019-03-09
40.21642105263158,2019-03-10
40.290657894736846,2019-03-11
40.3648947368421,2019-03-13
40.43913157894737,2019-03-16
40.51336842105263,2019-03-19
40.5876052631579,2019-03-20
40.661842105263155,2019-03-23
40.73607894736842,2019-03-24
40.810315789473684,2019-03-25
40.88455263157895,2019-03-26
40.95878947368421,2019-03-27
41.03302631578947,2019-03-29
41.107263157894735,2019-03-30
41.1815,2019-03-31
41.255736842105264,2019-04-03
41.32997368421053,2019-04-04
41.40421052631579,2019-04-05
41.47844736842105,2019-04-06
41.552684210526316,2019-04-08
41.62692105263158,2019-04-09
41.70115789473684,2019-04-10
41.7753947368421,2019-04-12
41.84963157894737,2019-04-13
41.92386842105263,2019-04-14
41.998105263157896,2019-04-15
42.072342105263154,2019-04-16
42.14657894736842,2019-04-20
42.22081578947368,2019-04-21
42.29505263157895,2019-04-22
42.36928947368421,2019-04-23
42.44352631578947,2019-04-24
42.517763157894734,2019-04-25
42.592,2019-04-27
42.66623684210526,2019-04-28
42.74047368421053,2019-04-29
42.814710526315785,2019-04-30
42.88894736842105,2019-05-01
42.963184210526315,2019-05-02
43.03742105263158,2019-05-03
43.11165789473684,2019-05-04
43.1858947368421,2019-05-06
43.260131578947366,2019-05-07
43.33436842105263,2019-05-08
43.408605263157895,2019-05-09
43.48284210526315,2019-05-10
43.55707894736842,2019-05-11
43.63131578947368,2019-05-12
43.705552631578946,2019-05-13
43.77978947368421,2019-05-14
43.85402631578947,2019-05-15
43.92826315789473,2019-05-17
44.0025,2019-05-18
44.07673684210526,2019-05-19
44.15097368421053,2019-05-21
44.225210526315784,2019-05-22
44.29944736842105,2019-05-23
44.373684210526314,2019-05-25
44.44792105263158,2019-05-27
44.522157894736836,2019-05-28
44.5963947368421,2019-05-29
44.670631578947365,2019-05-31
44.74486842105263,2019-06-01
44.819105263157894,2019-06-03
44.89334210526316,2019-06-04
44.967578947368416,2019-06-05
45.04181578947368,2019-06-06
45.116052631578945,2019-06-07
45.19028947368421,2019-06-08
45.26452631578947,2019-06-09
45.33876315789473,2019-06-11
45.413,2019-06-13
45.5625,2019-06-14
45.711999999999996,2019-06-15
45.8615,2019-06-17
46.010999999999996,2019-06-18
46.1605,2019-06-19
46.309999999999995,2019-06-21
46.4595,2019-06-23
46.608999999999995,2019-06-24
46.7585,2019-06-25
46.907999999999994,2019-06-26
47.0575,2019-06-27
47.206999999999994,2019-06-28
47.3565,2019-06-29
47.506,2019-07-01
47.655499999999996,2019-07-02
47.805,2019-07-03
47.954499999999996,2019-07-04
48.104,2019-07-05
48.253499999999995,2019-07-08
48.403,2019-07-09
48.552499999999995,2019-07-10
48.702,2019-07-11
48.851499999999994,2019-07-12
49.001,2019-07-14
49.150499999999994,2019-07-15
49.3,2019-07-16
49.4495,2019-07-17
49.599,2019-07-18
49.74849999999999,2019-07-19
49.897999999999996,2019-07-20
50.0475,2019-07-21
50.196999999999996,2019-07-22
50.3465,2019-07-24
50.495999999999995,2019-07-25
50.6455,2019-07-26
50.794999999999995,2019-07-27
50.9445,2019-07-28
51.093999999999994,2019-07-29
51.2435,2019-07-30
51.392999999999994,2019-07-31
51.5425,2019-08-01
51.69199999999999,2019-08-02
51.841499999999996,2019-08-03
51.991,2019-08-04
52.140499999999996,2019-08-05
52.29,2019-08-06
52.439499999999995,2019-08-07
52.589,2019-08-09
52.738499999999995,2019-08-10
52.888,2019-08-12
53.037499999999994,2019-08-13
53.187,2019-08-15
53.336499999999994,2019-08-16
53.486,2019-08-17
53.73013953488372,2019-08-19
53.97427906976744,2019-08-20
54.21841860465116,2019-08-22
54.462558139534885,2019-08-23
54.7066976744186,2019-08-26
54.95083720930232,2019-08-27
55.19497674418604,2019-08-28
55.439116279069765,2019-08-29
55.68325581395349,2019-08-30
55.92739534883721,2019-08-31
56.17153488372093,2019-09-02
56.41567441860465,2019-09-03
56.65981395348837,2019-09-05
56.90395348837209,2019-09-06
57.14809302325581,2019-09-07
57.39223255813953,2019-09-09
57.636372093023255,2019-09-10
57.88051162790698,2019-09-11
58.1246511627907,2019-09-12
58.36879069767442,2019-09-13
58.61293023255814,2019-09-14
58.85706976744186,2019-09-16
59.10120930232558,2019-09-17
59.3453488372093,2019-09-18
59.58948837209302,2019-09-19
59.833627906976744,2019-09-20
60.077767441860466,2019-09-23
60.32190697674419,2019-09-24
60.56604651162791,2019-09-25
60.81018604651163,2019-09-26
61.05432558139535,2019-09-30
61.29846511627907,2019-10-01
61.54260465116279,2019-10-02
61.78674418604651,2019-10-03
62.030883720930234,2019-10-04
62.275023255813956,2019-10-07
62.51916279069768,2019-10-08
62.76330232558139,2019-10-09
63.00744186046512,2019-10-10
63.251581395348836,2019-10-11
63.49572093023256,2019-10-12
63.73986046511628,2019-10-15
63.984,2019-10-16
64.12641176470588,2019-10-17
64.26882352941176,2019-10-18
64.41123529411765,2019-10-20
64.55364705882353,2019-10-22
64.69605882352941,2019-10-23
64.8384705882353,2019-10-24
64.98088235294118,2019-10-25
65.12329411764706,2019-10-27
65.26570588235295,2019-10-28
65.40811764705882,2019-10-29
65.5505294117647,2019-10-30
65.69294117647058,2019-10-31
65.83535294117647,2019-11-02
65.97776470588235,2019-11-04
66.12017647058823,2019-11-05
66.26258823529412,2019-11-06
66.405,2019-11-10
66.54741176470588,2019-11-12
66.68982352941177,2019-11-14
66.83223529411764,2019-11-15
66.97464705882352,2019-11-16
67.1170588235294,2019-11-19
67.25947058823529,2019-11-20
67.40188235294117,2019-11-21
67.54429411764706,2019-11-22
67.68670588235294,2019-11-27
67.82911764705882,2019-11-28
67.9715294117647,2019-12-01
68.11394117647058,2019-12-03
68.25635294117646,2019-12-05
68.39876470588234,2019-12-06
68.54117647058823,2019-12-07
68.68358823529411,2019-12-09
68.826,2019-12-10
69.14310714285713,2019-12-12
69.46021428571427,2019-12-13
69.77732142857143,2019-12-14
70.09442857142857,2019-12-16
70.4115357142857,2019-12-17
70.72864285714286,2019-12-19
71.04575,2019-12-22
71.36285714285714,2019-12-23
71.67996428571428,2020-01-04
71.99707142857142,2020-01-05
72.31417857142857,2020-01-17
72.63128571428571,2020-01-22
72.94839285714285,2020-01-23
73.2655,2020-01-24
73.58260714285714,2020-01-26
73.89971428571428,2020-01-31
74.21682142857142,2020-02-01
74.53392857142856,2020-02-03
74.85103571428571,2020-02-04
75.16814285714285,2020-02-05
75.48525,2020-02-07
75.80235714285715,2020-02-08
76.11946428571429,2020-02-11
76.43657142857143,2020-02-13
76.75367857142857,2020-02-14
77.0707857142857,2020-02-17
77.38789285714286,2020-02-20
77.705,2020-02-21
78.17620833333334,2020-02-25
78.64741666666666,2020-02-26
79.118625,2020-02-27
79.58983333333333,2020-02-28
80.06104166666667,2020-02-29
80.53225,2020-03-01
81.00345833333333,2020-03-02
81.47466666666666,2020-03-03
81.945875,2020-03-04
82.41708333333332,2020-03-05
82.88829166666666,2020-03-06
83.3595,2020-03-08
83.83070833333333,2020-03-09
84.30191666666667,2020-03-10
84.773125,2020-03-11
85.24433333333333,2020-03-12
85.71554166666667,2020-03-13
86.18674999999999,2020-03-14
86.65795833333333,2020-03-16
87.12916666666666,2020-03-18
87.600375,2020-03-20
88.07158333333334,2020-03-31
88.54279166666666,2020-04-08
89.014,2020-04-12
91.0345,2020-04-13
93.05499999999999,2020-04-16
95.07549999999999,2020-04-17
97.09599999999999,2020-04-18
99.1165,2020-04-20
101.137,2020-04-21
103.1575,2020-04-22
105.178,2020-04-23
107.1985,2020-04-25
109.219,2020-04-26
110.6045,2020-04-27
111.99,2020-04-28
113.3755,2020-04-29
114.761,2020-05-01
116.1465,2020-05-02
117.53200000000001,2020-05-05
118.9175,2020-05-06
120.30300000000001,2020-05-07
121.6885,2020-05-08
123.07400000000001,2020-05-09
124.4595,2020-05-11
125.84500000000001,2020-05-12
127.2305,2020-05-14
128.616,2020-05-15
128.69662000000002,2020-05-16
128.77724,2020-05-17
128.85786000000002,2020-05-18
128.93848,2020-05-19
129.0191,2020-05-20
129.09972000000002,2020-05-21
129.18034,2020-05-22
129.26096,2020-05-23
129.34158000000002,2020-05-24
129.4222,2020-05-25
129.50282,2020-05-26
129.58344,2020-05-27
129.66406,2020-05-28
129.74468000000002,2020-05-29
129.8253,2020-06-01
129.90592,2020-06-02
129.98654000000002,2020-06-03
130.06716,2020-06-04
130.14778,2020-06-05
130.2284,2020-06-06
130.30902,2020-06-08
130.38964,2020-06-09
130.47026,2020-06-10
130.55088,2020-06-12
130.63150000000002,2020-06-13
130.71212,2020-06-15
130.79274,2020-06-17
130.87336,2020-06-19
130.95398,2020-06-22
131.0346,2020-06-23
131.11522,2020-06-25
131.19584,2020-06-26
131.27646,2020-06-27
131.35708,2020-06-29
131.4377,2020-06-30
131.51832,2020-07-01
131.59894,2020-07-02
131.67956,2020-07-03
131.76018,2020-07-04
131.8408,2020-07-05
131.92141999999998,2020-07-06
132.00204,2020-07-07
132.08266,2020-07-09
132.16328,2020-07-10
132.2439,2020-07-11
132.32452,2020-07-13
132.40514,2020-07-15
132.48576,2020-07-16
132.56637999999998,2020-07-17
132.647,2020-07-18
132.76416129032256,2020-07-20
132.88132258064516,2020-07-21
132.99848387096773,2020-07-23
133.1156451612903,2020-07-24
133.2328064516129,2020-07-25
133.34996774193547,2020-07-26
133.46712903225804,2020-07-27
133.58429032258064,2020-07-28
133.7014516129032,2020-07-29
133.8186129032258,2020-07-30
133.93577419354838,2020-07-31
134.05293548387095,2020-08-01
134.17009677419355,2020-08-02
134.28725806451612,2020-08-03
134.4044193548387,2020-08-04
134.5215806451613,2020-08-05
134.63874193548386,2020-08-06
134.75590322580643,2020-08-07
134.87306451612903,2020-08-08
134.9902258064516,2020-08-09
135.10738709677418,2020-08-10
135.22454838709677,2020-08-11
135.34170967741935,2020-08-12
135.45887096774194,2020-08-13
135.57603225806452,2020-08-14
135.6931935483871,2020-08-15
135.81035483870969,2020-08-16
135.92751612903226,2020-08-17
136.04467741935483,2020-08-18
136.16183870967743,2020-08-19
136.279,2020-08-20
136.39616129032257,2020-08-23
136.51332258064517,2020-08-24
136.63048387096774,2020-08-25
136.7476451612903,2020-08-26
136.8648064516129,2020-08-27
136.98196774193548,2020-08-28
137.09912903225808,2020-08-29
137.21629032258065,2020-08-30
137.33345161290322,2020-08-31
137.45061290322582,2020-09-01
137.5677741935484,2020-09-03
137.68493548387096,2020-09-04
137.80209677419356,2020-09-05
137.91925806451613,2020-09-06
138.0364193548387,2020-09-07
138.1535806451613,2020-09-08
138.27074193548387,2020-09-09
138.38790322580644,2020-09-10
138.50506451612904,2020-09-11
138.6222258064516,2020-09-12
138.73938709677418,2020-09-13
138.85654838709678,2020-09-14
138.97370967741935,2020-09-15
139.09087096774195,2020-09-16
139.20803225806452,2020-09-18
139.3251935483871,2020-09-19
139.4423548387097,2020-09-21
139.55951612903226,2020-09-22
139.67667741935483,2020-09-23
139.79383870967743,2020-09-24
139.911,2020-09-25
141.1233125,2020-09-26
142.335625,2020-09-28
143.5479375,2020-09-29
144.76024999999998,2020-09-30
145.9725625,2020-10-01
147.184875,2020-10-02
148.3971875,2020-10-03
149.6095,2020-10-05
150.8218125,2020-10-06
152.034125,2020-10-07
153.24643749999998,2020-10-08
154.45875,2020-10-09
155.6710625,2020-10-10
156.883375,2020-10-11
158.0956875,2020-10-12
159.308,2020-10-13
161.83375,2020-10-14
164.3595,2020-10-15
166.88524999999998,2020-10-16
169.411,2020-10-17
171.93675000000002,2020-10-18
174.4625,2020-10-19
176.98825,2020-10-20
179.514,2020-10-23
178.11763636363636,2020-10-24
176.72127272727275,2020-10-26
175.3249090909091,2020-10-27
173.92854545454546,2020-10-28
172.5321818181818,2020-10-29
171.1358181818182,2020-10-31
169.73945454545455,2020-11-01
168.3430909090909,2020-11-02
166.94672727272726,2020-11-03
165.55036363636364,2020-11-04
164.154,2020-11-05
163.76721739130434,2020-11-06
163.3804347826087,2020-11-07
162.99365217391303,2020-11-09
162.60686956521738,2020-11-10
162.22008695652173,2020-11-11
161.8333043478261,2020-11-12
161.44652173913045,2020-11-13
161.0597391304348,2020-11-16
160.67295652173914,2020-11-17
160.28617391304348,2020-11-18
159.89939130434783,2020-11-19
159.51260869565218,2020-11-20
159.12582608695652,2020-11-21
158.73904347826087,2020-11-23
158.3522608695652,2020-11-25
157.96547826086956,2020-11-26
157.5786956521739,2020-11-27
157.19191304347828,2020-11-28
156.80513043478263,2020-11-29
156.41834782608697,2020-11-30
156.03156521739132,2020-12-01
155.64478260869566,2020-12-02
155.258,2020-12-03
155.62509090909091,2020-12-04
155.99218181818182,2020-12-06
156.35927272727272,2020-12-07
156.72636363636363,2020-12-08
157.09345454545453,2020-12-09
157.46054545454547,2020-12-11
157.82763636363637,2020-12-13
158.19472727272728,2020-12-14
158.56181818181818,2020-12-16
158.9289090909091,2020-12-18
159.296,2020-12-30
158.86042307692307,2021-01-21
158.42484615384615,2021-01-23
157.98926923076922,2021-01-24
157.5536923076923,2021-01-25
157.11811538461538,2021-01-26
156.68253846153846,2021-01-27
156.24696153846153,2021-01-29
155.8113846153846,2021-01-30
155.3758076923077,2021-01-31
154.94023076923077,2021-02-01
154.50465384615384,2021-02-02
154.06907692307692,2021-02-04
153.6335,2021-02-05
153.19792307692308,2021-02-06
152.76234615384615,2021-02-07
152.32676923076923,2021-02-08
151.8911923076923,2021-02-09
151.45561538461538,2021-02-10
151.02003846153846,2021-02-11
150.58446153846154,2021-02-12
150.14888461538462,2021-02-13
149.7133076923077,2021-02-15
149.27773076923077,2021-02-16
148.84215384615385,2021-02-17
148.40657692307693,2021-02-18
147.971,2021-02-19
147.90483673469387,2021-02-20
147.83867346938777,2021-02-22
147.77251020408164,2021-02-24
147.7063469387755,2021-02-26
147.64018367346938,2021-02-27
147.57402040816328,2021-02-28
147.50785714285715,2021-03-01
147.44169387755102,2021-03-02
147.37553061224492,2021-03-03
147.30936734693879,2021-03-04
147.24320408163265,2021-03-05
147.17704081632652,2021-03-06
147.11087755102042,2021-03-07
147.0447142857143,2021-03-08
146.97855102040816,2021-03-09
146.91238775510206,2021-03-10
146.84622448979593,2021-03-11
146.7800612244898,2021-03-12
146.71389795918367,2021-03-13
146.64773469387757,2021-03-15
146.58157142857144,2021-03-17
146.5154081632653,2021-03-18
146.4492448979592,2021-03-19
146.38308163265307,2021-03-20
146.31691836734694,2021-03-21
146.2507551020408,2021-03-22
146.1845918367347,2021-03-23
146.11842857142858,2021-03-25
146.05226530612245,2021-03-26
145.98610204081635,2021-03-27
145.91993877551022,2021-03-28
145.8537755102041,2021-03-29
145.78761224489796,2021-03-30
145.72144897959186,2021-04-02
145.65528571428572,2021-04-03
145.5891224489796,2021-04-05
145.5229591836735,2021-04-06
145.45679591836736,2021-04-08
145.39063265306123,2021-04-09
145.3244693877551,2021-04-10
145.258306122449,2021-04-11
145.19214285714287,2021-04-12
145.12597959183674,2021-04-13
145.05981632653064,2021-04-14
144.9936530612245,2021-04-15
144.92748979591838,2021-04-16
144.86132653061225,2021-04-17
144.79516326530614,2021-04-18
144.729,2021-04-19
145.05210000000002,2021-04-20
145.3752,2021-04-21
145.69830000000002,2021-04-22
146.0214,2021-04-23
146.3445,2021-04-26
146.66760000000002,2021-04-27
146.9907,2021-04-28
147.31380000000001,2021-04-29
147.6369,2021-05-01
147.96,2021-05-03
148.28310000000002,2021-05-04
148.6062,2021-05-05
148.9293,2021-05-06
149.2524,2021-05-07
149.5755,2021-05-08
149.89860000000002,2021-05-09
150.2217,2021-05-10
150.5448,2021-05-12
150.8679,2021-05-13
151.191,2021-05-14
151.5141,2021-05-15
151.8372,2021-05-16
152.1603,2021-05-17
152.4834,2021-05-18
152.8065,2021-05-19
153.1296,2021-05-20
153.4527,2021-05-21
153.7758,2021-05-22
154.0989,2021-05-25
154.422,2021-05-26
154.9775625,2021-05-27
155.53312499999998,2021-05-28
156.0886875,2021-05-30
156.64425,2021-05-31
157.1998125,2021-06-02
157.755375,2021-06-03
158.3109375,2021-06-04
158.8665,2021-06-05
159.42206249999998,2021-06-06
159.977625,2021-06-07
160.5331875,2021-06-08
161.08875,2021-06-10
161.64431249999998,2021-06-11
162.199875,2021-06-12
162.7554375,2021-06-13
163.31099999999998,2021-06-14
163.8665625,2021-06-15
164.422125,2021-06-16
164.9776875,2021-06-18
165.53324999999998,2021-06-19
166.0888125,2021-06-20
166.644375,2021-06-22
167.19993749999998,2021-06-23
167.75549999999998,2021-06-24
168.3110625,2021-06-25
168.866625,2021-06-26
169.42218749999998,2021-06-27
169.97775,2021-06-28
170.5333125,2021-06-29
171.08887499999997,2021-06-30
171.64443749999998,2021-07-01
172.2,2021-07-02
172.60372727272727,2021-07-12
173.00745454545452,2021-07-13
173.4111818181818,2021-07-14
173.81490909090908,2021-07-15
174.21863636363636,2021-07-18
174.62236363636362,2021-08-04
175.0260909090909,2021-08-12
175.42981818181818,2021-08-13
175.83354545454546,2021-08-14
176.2372727272727,2021-08-16
176.641,2021-08-17
177.04472727272727,2021-08-20
177.44845454545452,2021-08-22
177.8521818181818,2021-08-23
178.25590909090909,2021-08-24
178.65963636363637,2021-08-25
179.06336363636362,2021-08-26
179.4670909090909,2021-08-27
179.87081818181818,2021-08-28
180.27454545454543,2021-08-29
180.6782727272727,2021-08-30
181.082,2021-08-31
181.37045238095237,2021-09-02
181.65890476190475,2021-09-03
181.94735714285713,2021-09-05
182.2358095238095,2021-09-06
182.5242619047619,2021-09-08
182.8127142857143,2021-09-09
183.10116666666667,2021-09-10
183.38961904761905,2021-09-11
183.67807142857143,2021-09-13
183.9665238095238,2021-09-14
184.25497619047619,2021-09-15
184.54342857142856,2021-09-16
184.83188095238094,2021-09-17
185.12033333333332,2021-09-20
185.4087857142857,2021-09-21
185.6972380952381,2021-09-22
185.98569047619048,2021-09-24
186.27414285714286,2021-09-25
186.56259523809524,2021-09-27
186.85104761904762,2021-09-28
187.1395,2021-09-29
187.42795238095238,2021-09-30
187.71640476190476,2021-10-01
188.00485714285713,2021-10-02
188.2933095238095,2021-10-04
188.5817619047619,2021-10-06
188.8702142857143,2021-10-07
189.15866666666668,2021-10-08
189.44711904761905,2021-10-10
189.73557142857143,2021-10-11
190.0240238095238,2021-10-14
190.3124761904762,2021-10-16
190.60092857142857,2021-10-18
190.88938095238095,2021-10-20
191.17783333333333,2021-10-21
191.4662857142857,2021-10-22
191.7547380952381,2021-10-23
192.0431904761905,2021-10-25
192.33164285714287,2021-10-26
192.62009523809525,2021-10-28
192.90854761904762,2021-10-29
193.197,2021-10-30
193.41226666666668,2021-10-31
193.62753333333333,2021-11-01
193.8428,2021-11-02
194.05806666666666,2021-11-04
194.27333333333334,2021-11-05
194.4886,2021-11-08
194.70386666666667,2021-11-11
194.91913333333335,2021-11-15
195.1344,2021-11-16
195.34966666666668,2021-11-18
195.56493333333333,2021-11-19
195.7802,2021-11-20
195.99546666666666,2021-11-22
196.21073333333334,2021-11-24
196.426,2021-11-27
196.64126666666667,2021-11-29
196.85653333333335,2021-11-30
197.0718,2021-12-02
197.28706666666668,2021-12-03
197.50233333333333,2021-12-04
197.7176,2021-12-05
197.93286666666665,2021-12-06
198.14813333333333,2021-12-07
198.3634,2021-12-09
198.57866666666666,2021-12-11
198.79393333333334,2021-12-12
199.0092,2021-12-13
199.22446666666667,2021-12-14
199.43973333333332,2021-12-17
199.655,2021-12-19
205.58033333333333,2021-12-30
211.50566666666668,2022-01-03
217.431,2022-02-03
200.449,2022-03-21
203.674,2022-05-11
217.409,2022-06-21
237.616,2022-07-01
257.822,2022-07-10
278.029,2022-07-15
298.236,2022-07-20
301.466,2022-08-07
289.338,2022-08-30
286.1,2022-10-01
290.943,2022-11-11
310.34,2022-11-30
329.736,2022-12-23
