x,Curve1
4.63,3.233
119.38,3.214
137.74,3.211
234.12,3.196
348.86,3.178
376.41,3.982
463.62,3.968
578.36,3.95
628.85,3.942
693.11,3.932
807.85,3.914
922.59,3.896
1037.34,3.878
1152.08,3.859
1266.84,4.65
1381.58,4.631
1496.32,4.613
1560.58,4.603
1606.49,5.404
1624.85,5.401
1721.24,6.194
1836,6.985
1863.54,6.98
1946.17,8.584
2060.92,8.566
2171.08,9.357
2276.67,10.956
2386.83,11.747
2497.02,14.155
2607.15,12.521
2721.9,12.503
2832.09,15.719
2942.23,14.085
3052.38,14.067
3167.13,14.857
3277.3,15.648
3387.45,15.631
3497.64,18.038
3612.38,18.02
3722.56,19.619
3819.04,26.879
3897.18,35.758
3993.59,37.359
4080.82,39.771
4181.87,45.413
4246.24,53.486
4306.04,63.984
4361.18,68.826
4434.73,77.705
4485.37,89.014
4499.4,109.219
4518.02,128.616
4582.33,132.647
4651.27,139.911
4669.88,159.308
4679.33,179.514
4692.89,164.154
4720.32,155.258
4747.91,159.296
4798.25,147.971
4857.87,144.729
4894.72,154.422
4931.67,172.2
4991.45,181.082
5051.28,193.197
5101.85,199.655
5147.98,217.431
5193.65,200.449
5244.18,203.674
5285.67,217.409
5295.12,237.616
5304.56,257.822
5309.42,278.029
5314.27,298.236
5332.67,301.466
5355.46,289.338
5387.55,286.1
5428.92,290.943
5447.53,310.34
5470.74,329.736
